Chapter 3 Data transformation | NYC Events Analysis
…
            NYC Events Analysis

Chapter 3 Data transformation

(Work in progress)

3.1 Read Raw Data

3.2 Joining events with other tables

(TOOD: No longer accurate)
The events listing data is the main data table, therefore, we want to keep all rows in the events listing table even if there is no matching row in the other tables. As a result, we are performing left outer joins and keeping all rows of the nyc_event_listing_events data frame.

## # A tibble: 91,715 × 2
##    EvtId CatCt
##    <int> <int>
##  1 62223     2
##  2 62224     2
##  3 62225     2
##  4 62226     2
##  5 62227     2
##  6 62228     2
##  7 62229     2
##  8 62230     2
##  9 62231     2
## 10 62232     2
## # … with 91,705 more rows

## # A tibble: 127 × 2
##    Cat                                             count
##    <chr>                                           <int>
##  1 Accessible                                       6653
##  2 Anchor Parks                                       12
##  3 Art                                             12046
##  4 Art in the Parks: Celebrating 50 Years            134
##  5 Art in the Parks: UNIQLO Park Expressions Grant    57
##  6 Arts & Crafts                                    6888
##  7 Arts, Culture & Fun Series                        734
##  8 Astronomy                                         353
##  9 Best for Kids                                   19785
## 10 Bike Month NYC                                     91
## # … with 117 more rows

## # A tibble: 85,502 × 2
##    EvtId OrgCt
##    <int> <int>
##  1 62223     1
##  2 62224     1
##  3 62225     1
##  4 62226     1
##  5 62227     1
##  6 62228     1
##  7 62229     1
##  8 62230     1
##  9 62231     1
## 10 62232     1
## # … with 85,492 more rows

## # A tibble: 2,302 × 2
##    Org                            count
##    <chr>                          <int>
##  1 : East 43rd Street Community G     1
##  2 (TASCA) The American Small Cra    72
##  3 (TASCA)The American Small Craf     1
##  4 106 St. Old Timers                 1
##  5 106 St. Old Timers, Inc.           2
##  6 10th & Stuyvesant Streets Bloc     1
##  7 132nd st Community Garden          1
##  8 14 Sculptors                       7
##  9 150 - 155th Street Edgecombe B     2
## 10 150th-155th Street Edgecombe A    11
## # … with 2,292 more rows

## # A tibble: 2,302 × 3
## # Groups:   grp [733]
##    Org                            count   grp
##    <chr>                          <int> <int>
##  1 : East 43rd Street Community G     1     1
##  2 Aberdeen Street Community Seed     1     1
##  3 East Fourth Street Community G     1     1
##  4 Java Street Community Garden       1     1
##  5 Madison Street Community Garde     1     1
##  6 Woodbine Street Community Gard     1     1
##  7 East 4th Street Community Gard     3     1
##  8 Poplar Street Community Garden     3     1
##  9 East 43rd Street Community Gar     9     1
## 10 (TASCA)The American Small Craf     1     2
## # … with 2,292 more rows
