Chapter 5 Results | NYC Events Analysis
…
“Q099” is “Flushing Meadows Corona Park”

“M010” is “Central Park”

all of which are more well-known parks in NYC.

From this scatter plot, it is certainly apparent that there seems to be a correlation that the parks with more
diverse groups of organizers choosing them as event locations tend to have events with more diverse categories as
well, which makes us wonder if different organizers have preferences over certain event categories.

5.1.3 Top Organizers’ Event Categories and Locations Preferences

TODO, WIP

## # A tibble: 706 × 3
## # Groups:   Org [30]
##    Org          Cat           UniqueEvts
##    <chr>        <chr>              <int>
##  1 Alice Austen Accessible            28
##  2 Alice Austen Art                  331
##  3 Alice Austen Arts & Crafts         28
##  4 Alice Austen Best for Kids         22
##  5 Alice Austen Concerts              14
##  6 Alice Austen Dance                  7
##  7 Alice Austen Education             46
##  8 Alice Austen Festivals              3
##  9 Alice Austen Film                   6
## 10 Alice Austen Fitness               17
## # … with 696 more rows
…
